{
    "swagger": "2.0",
    "info": {
        "title": "Document APIs",
        "contact": {}
    },
    "basePath": "/",
    "paths": {
        "/join-room": {
            "post": {
                "security": [
                    {
                        "Bearer": []
                    }
                ],
                "tags": [
                    "Websocket"
                ],
                "summary": "WsJoinRoom",
                "parameters": [
                    {
                        "description": "body",
                        "name": "body",
                        "in": "body",
                        "required": true,
                        "schema": {
                            "$ref": "#/definitions/models.WsJoinRoomData"
                        }
                    }
                ],
                "responses": {
                    "200": {
                        "description": "OK",
                        "schema": {
                            "$ref": "#/definitions/models.SwagWsJoinRoomDto"
                        }
                    }
                }
            }
        },
        "/leave-room": {
            "post": {
                "security": [
                    {
                        "Bearer": []
                    }
                ],
                "tags": [
                    "Websocket"
                ],
                "summary": "WsLeaveRoom",
                "parameters": [
                    {
                        "description": "body",
                        "name": "body",
                        "in": "body",
                        "required": true,
                        "schema": {
                            "$ref": "#/definitions/models.WsLeaveRoomData"
                        }
                    }
                ],
                "responses": {
                    "200": {
                        "description": "OK",
                        "schema": {
                            "$ref": "#/definitions/models.SwagWsLeaveRoomDto"
                        }
                    }
                }
            }
        },
        "/send-message": {
            "post": {
                "security": [
                    {
                        "Bearer": []
                    }
                ],
                "tags": [
                    "Websocket"
                ],
                "summary": "WsSendMessage",
                "parameters": [
                    {
                        "description": "body",
                        "name": "body",
                        "in": "body",
                        "required": true,
                        "schema": {
                            "$ref": "#/definitions/models.WsSendMessageData"
                        }
                    }
                ],
                "responses": {
                    "200": {
                        "description": "OK",
                        "schema": {
                            "$ref": "#/definitions/models.SwagWsSendMessageDto"
                        }
                    }
                }
            }
        },
        "/v1/admin/account": {
            "get": {
                "security": [
                    {
                        "Bearer": []
                    }
                ],
                "tags": [
                    "Account"
                ],
                "summary": "FindAll",
                "parameters": [
                    {
                        "type": "integer",
                        "default": 1,
                        "description": "page",
                        "name": "page",
                        "in": "query"
                    },
                    {
                        "type": "integer",
                        "default": 1,
                        "description": "limit",
                        "name": "limit",
                        "in": "query"
                    },
                    {
                        "type": "string",
                        "default": "createdAt:-1",
                        "description": "sorts",
                        "name": "sorts",
                        "in": "query"
                    },
                    {
                        "type": "string",
                        "description": "keywords",
                        "name": "keywords",
                        "in": "query"
                    }
                ],
                "responses": {
                    "200": {
                        "description": "OK",
                        "schema": {
                            "$ref": "#/definitions/models.SwagAccountDtoList"
                        }
                    }
                }
            },
            "post": {
                "security": [
                    {
                        "Bearer": []
                    }
                ],
                "tags": [
                    "Account"
                ],
                "summary": "Create",
                "parameters": [
                    {
                        "description": "body",
                        "name": "body",
                        "in": "body",
                        "required": true,
                        "schema": {
                            "$ref": "#/definitions/models.AccountData"
                        }
                    }
                ],
                "responses": {
                    "200": {
                        "description": "OK",
                        "schema": {
                            "$ref": "#/definitions/models.SwagCodeMsg"
                        }
                    }
                }
            }
        },
        "/v1/admin/account/resetpass/{id}": {
            "put": {
                "security": [
                    {
                        "Bearer": []
                    }
                ],
                "tags": [
                    "Account"
                ],
                "summary": "ResetPass",
                "parameters": [
                    {
                        "type": "string",
                        "description": "id",
                        "name": "id",
                        "in": "path",
                        "required": true
                    }
                ],
                "responses": {
                    "200": {
                        "description": "OK",
                        "schema": {
                            "$ref": "#/definitions/models.SwagCodeMsg"
                        }
                    }
                }
            }
        },
        "/v1/admin/account/{id}": {
            "put": {
                "security": [
                    {
                        "Bearer": []
                    }
                ],
                "tags": [
                    "Account"
                ],
                "summary": "Update",
                "parameters": [
                    {
                        "type": "string",
                        "description": "id",
                        "name": "id",
                        "in": "path",
                        "required": true
                    },
                    {
                        "description": "body",
                        "name": "body",
                        "in": "body",
                        "required": true,
                        "schema": {
                            "$ref": "#/definitions/models.AccountData"
                        }
                    }
                ],
                "responses": {
                    "200": {
                        "description": "OK",
                        "schema": {
                            "$ref": "#/definitions/models.SwagCodeMsg"
                        }
                    }
                }
            },
            "delete": {
                "security": [
                    {
                        "Bearer": []
                    }
                ],
                "tags": [
                    "Account"
                ],
                "summary": "Delete",
                "parameters": [
                    {
                        "type": "string",
                        "description": "id",
                        "name": "id",
                        "in": "path",
                        "required": true
                    }
                ],
                "responses": {
                    "200": {
                        "description": "OK",
                        "schema": {
                            "$ref": "#/definitions/models.SwagCodeMsg"
                        }
                    }
                }
            }
        },
        "/v1/admin/group": {
            "get": {
                "security": [
                    {
                        "Bearer": []
                    }
                ],
                "tags": [
                    "Group"
                ],
                "summary": "FindAll",
                "parameters": [
                    {
                        "type": "integer",
                        "default": 1,
                        "description": "page",
                        "name": "page",
                        "in": "query"
                    },
                    {
                        "type": "integer",
                        "default": 1,
                        "description": "limit",
                        "name": "limit",
                        "in": "query"
                    },
                    {
                        "type": "string",
                        "default": "createdAt:-1",
                        "description": "sorts",
                        "name": "sorts",
                        "in": "query"
                    },
                    {
                        "type": "string",
                        "description": "keywords",
                        "name": "keywords",
                        "in": "query"
                    }
                ],
                "responses": {
                    "200": {
                        "description": "OK",
                        "schema": {
                            "$ref": "#/definitions/models.SwagGroupDtoList"
                        }
                    }
                }
            },
            "post": {
                "security": [
                    {
                        "Bearer": []
                    }
                ],
                "tags": [
                    "Group"
                ],
                "summary": "Create",
                "parameters": [
                    {
                        "description": "body",
                        "name": "body",
                        "in": "body",
                        "required": true,
                        "schema": {
                            "$ref": "#/definitions/models.GroupData"
                        }
                    }
                ],
                "responses": {
                    "200": {
                        "description": "OK",
                        "schema": {
                            "$ref": "#/definitions/models.SwagCodeMsg"
                        }
                    }
                }
            }
        },
        "/v1/admin/group/account": {
            "get": {
                "security": [
                    {
                        "Bearer": []
                    }
                ],
                "tags": [
                    "Group"
                ],
                "summary": "FindAllForAccount",
                "parameters": [
                    {
                        "type": "integer",
                        "default": 1,
                        "description": "page",
                        "name": "page",
                        "in": "query"
                    },
                    {
                        "type": "integer",
                        "default": 1,
                        "description": "limit",
                        "name": "limit",
                        "in": "query"
                    },
                    {
                        "type": "string",
                        "default": "createdAt:-1",
                        "description": "sorts",
                        "name": "sorts",
                        "in": "query"
                    }
                ],
                "responses": {
                    "200": {
                        "description": "OK",
                        "schema": {
                            "$ref": "#/definitions/models.SwagGroupBaseDtoList"
                        }
                    }
                }
            }
        },
        "/v1/admin/group/{id}": {
            "put": {
                "security": [
                    {
                        "Bearer": []
                    }
                ],
                "tags": [
                    "Group"
                ],
                "summary": "Update",
                "parameters": [
                    {
                        "type": "string",
                        "description": "id",
                        "name": "id",
                        "in": "path",
                        "required": true
                    },
                    {
                        "description": "body",
                        "name": "body",
                        "in": "body",
                        "required": true,
                        "schema": {
                            "$ref": "#/definitions/models.GroupData"
                        }
                    }
                ],
                "responses": {
                    "200": {
                        "description": "OK",
                        "schema": {
                            "$ref": "#/definitions/models.SwagCodeMsg"
                        }
                    }
                }
            },
            "delete": {
                "security": [
                    {
                        "Bearer": []
                    }
                ],
                "tags": [
                    "Group"
                ],
                "summary": "Delete",
                "parameters": [
                    {
                        "type": "string",
                        "description": "id",
                        "name": "id",
                        "in": "path",
                        "required": true
                    }
                ],
                "responses": {
                    "200": {
                        "description": "OK",
                        "schema": {
                            "$ref": "#/definitions/models.SwagCodeMsg"
                        }
                    }
                }
            }
        },
        "/v1/admin/role": {
            "get": {
                "security": [
                    {
                        "Bearer": []
                    }
                ],
                "tags": [
                    "Role"
                ],
                "summary": "FindAll",
                "parameters": [
                    {
                        "type": "integer",
                        "default": 1,
                        "description": "page",
                        "name": "page",
                        "in": "query"
                    },
                    {
                        "type": "integer",
                        "default": 1,
                        "description": "limit",
                        "name": "limit",
                        "in": "query"
                    },
                    {
                        "type": "string",
                        "default": "createdAt:-1",
                        "description": "sorts",
                        "name": "sorts",
                        "in": "query"
                    },
                    {
                        "type": "string",
                        "description": "keywords",
                        "name": "keywords",
                        "in": "query"
                    }
                ],
                "responses": {
                    "200": {
                        "description": "OK",
                        "schema": {
                            "$ref": "#/definitions/models.SwagRoleDtoList"
                        }
                    }
                }
            },
            "post": {
                "security": [
                    {
                        "Bearer": []
                    }
                ],
                "tags": [
                    "Role"
                ],
                "summary": "Create",
                "parameters": [
                    {
                        "description": "body",
                        "name": "body",
                        "in": "body",
                        "required": true,
                        "schema": {
                            "$ref": "#/definitions/models.RoleData"
                        }
                    }
                ],
                "responses": {
                    "200": {
                        "description": "OK",
                        "schema": {
                            "$ref": "#/definitions/models.SwagCodeMsg"
                        }
                    }
                }
            }
        },
        "/v1/admin/role/account": {
            "get": {
                "security": [
                    {
                        "Bearer": []
                    }
                ],
                "tags": [
                    "Role"
                ],
                "summary": "FindAllForAccount",
                "parameters": [
                    {
                        "type": "integer",
                        "default": 1,
                        "description": "page",
                        "name": "page",
                        "in": "query"
                    },
                    {
                        "type": "integer",
                        "default": 1,
                        "description": "limit",
                        "name": "limit",
                        "in": "query"
                    },
                    {
                        "type": "string",
                        "default": "createdAt:-1",
                        "description": "sorts",
                        "name": "sorts",
                        "in": "query"
                    }
                ],
                "responses": {
                    "200": {
                        "description": "OK",
                        "schema": {
                            "$ref": "#/definitions/models.SwagRoleBaseDtoList"
                        }
                    }
                }
            }
        },
        "/v1/admin/role/{id}": {
            "put": {
                "security": [
                    {
                        "Bearer": []
                    }
                ],
                "tags": [
                    "Role"
                ],
                "summary": "Update",
                "parameters": [
                    {
                        "type": "string",
                        "description": "id",
                        "name": "id",
                        "in": "path",
                        "required": true
                    },
                    {
                        "description": "body",
                        "name": "body",
                        "in": "body",
                        "required": true,
                        "schema": {
                            "$ref": "#/definitions/models.RoleData"
                        }
                    }
                ],
                "responses": {
                    "200": {
                        "description": "OK",
                        "schema": {
                            "$ref": "#/definitions/models.SwagCodeMsg"
                        }
                    }
                }
            },
            "delete": {
                "security": [
                    {
                        "Bearer": []
                    }
                ],
                "tags": [
                    "Role"
                ],
                "summary": "Delete",
                "parameters": [
                    {
                        "type": "string",
                        "description": "id",
                        "name": "id",
                        "in": "path",
                        "required": true
                    }
                ],
                "responses": {
                    "200": {
                        "description": "OK",
                        "schema": {
                            "$ref": "#/definitions/models.SwagCodeMsg"
                        }
                    }
                }
            }
        },
        "/v1/cdn/{kind}": {
            "post": {
                "security": [
                    {
                        "Bearer": []
                    }
                ],
                "tags": [
                    "Cdn"
                ],
                "summary": "Upload",
                "parameters": [
                    {
                        "enum": [
                            "image",
                            "video"
                        ],
                        "type": "string",
                        "description": "kind",
                        "name": "kind",
                        "in": "path",
                        "required": true
                    },
                    {
                        "type": "file",
                        "description": "files",
                        "name": "files",
                        "in": "formData",
                        "required": true
                    }
                ],
                "responses": {
                    "200": {
                        "description": "OK",
                        "schema": {
                            "$ref": "#/definitions/models.SwagCodeMsg"
                        }
                    }
                }
            }
        },
        "/v1/cdn/{kind}/{name}": {
            "get": {
                "tags": [
                    "Cdn"
                ],
                "summary": "Download",
                "parameters": [
                    {
                        "enum": [
                            "image",
                            "video"
                        ],
                        "type": "string",
                        "description": "kind",
                        "name": "kind",
                        "in": "path",
                        "required": true
                    },
                    {
                        "type": "string",
                        "description": "name",
                        "name": "name",
                        "in": "path",
                        "required": true
                    }
                ],
                "responses": {}
            }
        },
        "/v1/device/{device}": {
            "post": {
                "security": [
                    {
                        "Bearer": []
                    }
                ],
                "tags": [
                    "Device"
                ],
                "summary": "Upsert",
                "parameters": [
                    {
                        "description": "body",
                        "name": "body",
                        "in": "body",
                        "required": true,
                        "schema": {
                            "$ref": "#/definitions/models.DeviceData"
                        }
                    }
                ],
                "responses": {
                    "200": {
                        "description": "OK",
                        "schema": {
                            "$ref": "#/definitions/models.SwagCodeMsg"
                        }
                    }
                }
            },
            "delete": {
                "security": [
                    {
                        "Bearer": []
                    }
                ],
                "tags": [
                    "Device"
                ],
                "summary": "Delete",
                "parameters": [
                    {
                        "type": "string",
                        "description": "device",
                        "name": "device",
                        "in": "path",
                        "required": true
                    }
                ],
                "responses": {
                    "200": {
                        "description": "OK",
                        "schema": {
                            "$ref": "#/definitions/models.SwagCodeMsg"
                        }
                    }
                }
            }
        },
        "/v1/notify": {
            "get": {
                "security": [
                    {
                        "Bearer": []
                    }
                ],
                "tags": [
                    "Notify"
                ],
                "summary": "FindAll",
                "parameters": [
                    {
                        "type": "integer",
                        "default": 1,
                        "description": "page",
                        "name": "page",
                        "in": "query"
                    },
                    {
                        "type": "integer",
                        "default": 1,
                        "description": "limit",
                        "name": "limit",
                        "in": "query"
                    },
                    {
                        "type": "string",
                        "default": "createdAt:-1",
                        "description": "sorts",
                        "name": "sorts",
                        "in": "query"
                    },
                    {
                        "type": "string",
                        "description": "group_eq",
                        "name": "group_eq",
                        "in": "query"
                    }
                ],
                "responses": {
                    "200": {
                        "description": "OK",
                        "schema": {
                            "$ref": "#/definitions/models.SwagNotifyDtoList"
                        }
                    }
                }
            }
        },
        "/v1/notify/{id}": {
            "put": {
                "security": [
                    {
                        "Bearer": []
                    }
                ],
                "tags": [
                    "Notify"
                ],
                "summary": "Read",
                "parameters": [
                    {
                        "type": "string",
                        "description": "id",
                        "name": "id",
                        "in": "path",
                        "required": true
                    }
                ],
                "responses": {
                    "200": {
                        "description": "OK",
                        "schema": {
                            "$ref": "#/definitions/models.SwagCodeMsg"
                        }
                    }
                }
            },
            "delete": {
                "security": [
                    {
                        "Bearer": []
                    }
                ],
                "tags": [
                    "Notify"
                ],
                "summary": "Delete",
                "parameters": [
                    {
                        "type": "string",
                        "description": "id",
                        "name": "id",
                        "in": "path",
                        "required": true
                    }
                ],
                "responses": {
                    "200": {
                        "description": "OK",
                        "schema": {
                            "$ref": "#/definitions/models.SwagCodeMsg"
                        }
                    }
                }
            }
        },
        "/v1/oauth/cache": {
            "get": {
                "security": [
                    {
                        "Bearer": []
                    }
                ],
                "tags": [
                    "Oauth"
                ],
                "summary": "GetCache",
                "parameters": [
                    {
                        "type": "string",
                        "description": "key (add prefix detail- to view detail)",
                        "name": "key",
                        "in": "query"
                    }
                ],
                "responses": {
                    "200": {
                        "description": "OK",
                        "schema": {
                            "$ref": "#/definitions/models.SwagCodeMsg"
                        }
                    }
                }
            },
            "delete": {
                "security": [
                    {
                        "Bearer": []
                    }
                ],
                "tags": [
                    "Oauth"
                ],
                "summary": "DeleteCache",
                "parameters": [
                    {
                        "type": "string",
                        "description": "key",
                        "name": "key",
                        "in": "query"
                    }
                ],
                "responses": {
                    "200": {
                        "description": "OK",
                        "schema": {
                            "$ref": "#/definitions/models.SwagCodeMsg"
                        }
                    }
                }
            }
        },
        "/v1/oauth/changepass": {
            "post": {
                "security": [
                    {
                        "Bearer": []
                    }
                ],
                "tags": [
                    "Oauth"
                ],
                "summary": "ChangePassword",
                "parameters": [
                    {
                        "description": "body",
                        "name": "body",
                        "in": "body",
                        "required": true,
                        "schema": {
                            "$ref": "#/definitions/models.OauthChangePasswordBody"
                        }
                    }
                ],
                "responses": {
                    "200": {
                        "description": "OK",
                        "schema": {
                            "$ref": "#/definitions/models.SwagCodeMsg"
                        }
                    }
                }
            }
        },
        "/v1/oauth/forgotpass": {
            "post": {
                "tags": [
                    "Oauth"
                ],
                "summary": "ForgotPassword",
                "parameters": [
                    {
                        "description": "body",
                        "name": "body",
                        "in": "body",
                        "required": true,
                        "schema": {
                            "$ref": "#/definitions/models.OauthForgotPasswordBody"
                        }
                    }
                ],
                "responses": {
                    "200": {
                        "description": "OK",
                        "schema": {
                            "$ref": "#/definitions/models.SwagCodeMsg"
                        }
                    }
                }
            }
        },
        "/v1/oauth/forgotpass/otp": {
            "post": {
                "tags": [
                    "Oauth"
                ],
                "summary": "ForgotPasswordOtp",
                "parameters": [
                    {
                        "description": "body",
                        "name": "body",
                        "in": "body",
                        "required": true,
                        "schema": {
                            "$ref": "#/definitions/models.OauthForgotPasswordOtpBody"
                        }
                    }
                ],
                "responses": {
                    "200": {
                        "description": "OK",
                        "schema": {
                            "$ref": "#/definitions/models.SwagCodeMsg"
                        }
                    }
                }
            }
        },
        "/v1/oauth/login": {
            "post": {
                "tags": [
                    "Oauth"
                ],
                "summary": "Login",
                "parameters": [
                    {
                        "description": "body",
                        "name": "body",
                        "in": "body",
                        "required": true,
                        "schema": {
                            "$ref": "#/definitions/models.OauthLoginBody"
                        }
                    }
                ],
                "responses": {
                    "200": {
                        "description": "OK",
                        "schema": {
                            "$ref": "#/definitions/models.SwagOauthTokenBody"
                        }
                    }
                }
            }
        },
        "/v1/oauth/me": {
            "get": {
                "security": [
                    {
                        "Bearer": []
                    }
                ],
                "tags": [
                    "Oauth"
                ],
                "summary": "GetMe",
                "responses": {
                    "200": {
                        "description": "OK",
                        "schema": {
                            "$ref": "#/definitions/models.SwagOauthSessionDto"
                        }
                    }
                }
            },
            "put": {
                "security": [
                    {
                        "Bearer": []
                    }
                ],
                "tags": [
                    "Oauth"
                ],
                "summary": "UpdateMe",
                "parameters": [
                    {
                        "description": "body",
                        "name": "body",
                        "in": "body",
                        "required": true,
                        "schema": {
                            "$ref": "#/definitions/models.UserMeData"
                        }
                    }
                ],
                "responses": {
                    "200": {
                        "description": "OK",
                        "schema": {
                            "$ref": "#/definitions/models.SwagCodeMsg"
                        }
                    }
                }
            }
        },
        "/v1/oauth/me/{user}": {
            "delete": {
                "tags": [
                    "Oauth"
                ],
                "summary": "DeleteMe",
                "parameters": [
                    {
                        "type": "string",
                        "description": "user",
                        "name": "user",
                        "in": "path",
                        "required": true
                    }
                ],
                "responses": {
                    "200": {
                        "description": "OK",
                        "schema": {
                            "$ref": "#/definitions/models.SwagCodeMsg"
                        }
                    }
                }
            }
        },
        "/v1/oauth/register": {
            "post": {
                "tags": [
                    "Oauth"
                ],
                "summary": "Register",
                "parameters": [
                    {
                        "description": "body",
                        "name": "body",
                        "in": "body",
                        "required": true,
                        "schema": {
                            "$ref": "#/definitions/models.OauthRegisterBody"
                        }
                    }
                ],
                "responses": {
                    "200": {
                        "description": "OK",
                        "schema": {
                            "$ref": "#/definitions/models.SwagCodeMsg"
                        }
                    }
                }
            }
        },
        "/v1/oauth/register/otp": {
            "post": {
                "tags": [
                    "Oauth"
                ],
                "summary": "RegisterOtp",
                "parameters": [
                    {
                        "description": "body",
                        "name": "body",
                        "in": "body",
                        "required": true,
                        "schema": {
                            "$ref": "#/definitions/models.OauthRegisterOtpBody"
                        }
                    }
                ],
                "responses": {
                    "200": {
                        "description": "OK",
                        "schema": {
                            "$ref": "#/definitions/models.SwagCodeMsg"
                        }
                    }
                }
            }
        },
        "/v1/static/config": {
            "get": {
                "tags": [
                    "Static"
                ],
                "summary": "Config",
                "responses": {
                    "200": {
                        "description": "OK",
                        "schema": {
                            "$ref": "#/definitions/models.SwagConfigDto"
                        }
                    }
                }
            }
        },
        "/v1/static/district": {
            "get": {
                "tags": [
                    "Static"
                ],
                "summary": "District",
                "parameters": [
                    {
                        "type": "string",
                        "description": "province_eq",
                        "name": "province_eq",
                        "in": "query",
                        "required": true
                    }
                ],
                "responses": {
                    "200": {
                        "description": "OK",
                        "schema": {
                            "$ref": "#/definitions/models.SwagDistrictDtoList"
                        }
                    }
                }
            }
        },
        "/v1/static/meta": {
            "get": {
                "tags": [
                    "Static"
                ],
                "summary": "Meta",
                "responses": {
                    "200": {
                        "description": "OK",
                        "schema": {
                            "$ref": "#/definitions/models.SwagMetaDto"
                        }
                    }
                }
            }
        },
        "/v1/static/province": {
            "get": {
                "tags": [
                    "Static"
                ],
                "summary": "Province",
                "parameters": [
                    {
                        "type": "boolean",
                        "description": "iscity_eq",
                        "name": "isCity_eq",
                        "in": "query"
                    }
                ],
                "responses": {
                    "200": {
                        "description": "OK",
                        "schema": {
                            "$ref": "#/definitions/models.SwagProvinceDtoList"
                        }
                    }
                }
            }
        },
        "/v1/static/ward": {
            "get": {
                "tags": [
                    "Static"
                ],
                "summary": "Ward",
                "parameters": [
                    {
                        "type": "string",
                        "description": "district_eq",
                        "name": "district_eq",
                        "in": "query",
                        "required": true
                    }
                ],
                "responses": {
                    "200": {
                        "description": "OK",
                        "schema": {
                            "$ref": "#/definitions/models.SwagWardDtoList"
                        }
                    }
                }
            }
        }
    },
    "definitions": {
        "models.AccountData": {
            "type": "object",
            "required": [
                "email",
                "groups",
                "name",
                "phone",
                "role",
                "status",
                "username"
            ],
            "properties": {
                "avatar": {
                    "type": "string"
                },
                "email": {
                    "type": "string"
                },
                "groups": {
                    "type": "array",
                    "minItems": 1,
                    "items": {
                        "type": "string"
                    }
                },
                "name": {
                    "type": "string"
                },
                "phone": {
                    "type": "string"
                },
                "role": {
                    "type": "string"
                },
                "status": {
                    "type": "string"
                },
                "username": {
                    "type": "string"
                }
            }
        },
        "models.AccountDto": {
            "type": "object",
            "properties": {
                "avatar": {
                    "type": "string"
                },
                "createdAt": {
                    "type": "string"
                },
                "createdBy": {
                    "$ref": "#/definitions/models.BaseAccountDto"
                },
                "email": {
                    "type": "string"
                },
                "groups": {
                    "type": "array",
                    "items": {
                        "$ref": "#/definitions/models.BaseGroupDto"
                    }
                },
                "id": {
                    "type": "string"
                },
                "name": {
                    "type": "string"
                },
                "phone": {
                    "type": "string"
                },
                "role": {
                    "$ref": "#/definitions/models.BaseRoleDto"
                },
                "status": {
                    "$ref": "#/definitions/models.BaseMetaDto"
                },
                "updatedAt": {
                    "type": "string"
                },
                "updatedBy": {
                    "$ref": "#/definitions/models.BaseAccountDto"
                },
                "username": {
                    "type": "string"
                }
            }
        },
        "models.BaseAccountDto": {
            "type": "object",
            "properties": {
                "avatar": {
                    "type": "string"
                },
                "id": {
                    "type": "string"
                },
                "name": {
                    "type": "string"
                }
            }
        },
        "models.BaseGroupDto": {
            "type": "object",
            "properties": {
                "id": {
                    "type": "string"
                },
                "name": {
                    "type": "string"
                }
            }
        },
        "models.BaseMetaDto": {
            "type": "object",
            "properties": {
                "id": {
                    "type": "string"
                },
                "name": {
                    "type": "string"
                }
            }
        },
        "models.BaseRoleDto": {
            "type": "object",
            "properties": {
                "id": {
                    "type": "string"
                },
                "name": {
                    "type": "string"
                }
            }
        },
        "models.BaseUserDto": {
            "type": "object",
            "properties": {
                "avatar": {
                    "type": "string"
                },
                "id": {
                    "type": "string"
                },
                "name": {
                    "type": "string"
                }
            }
        },
        "models.ConfigDto": {
            "type": "object",
            "properties": {
                "cdnUrl": {
                    "type": "string"
                }
            }
        },
        "models.DeviceData": {
            "type": "object",
            "required": [
                "os",
                "token",
                "verCode",
                "verName"
            ],
            "properties": {
                "os": {
                    "type": "string"
                },
                "token": {
                    "type": "string"
                },
                "verCode": {
                    "type": "integer"
                },
                "verName": {
                    "type": "string"
                }
            }
        },
        "models.DistrictDto": {
            "type": "object",
            "properties": {
                "id": {
                    "type": "string"
                },
                "name": {
                    "type": "string"
                }
            }
        },
        "models.GroupData": {
            "type": "object",
            "required": [
                "name"
            ],
            "properties": {
                "name": {
                    "type": "string"
                }
            }
        },
        "models.GroupDto": {
            "type": "object",
            "properties": {
                "createdAt": {
                    "type": "string"
                },
                "createdBy": {
                    "$ref": "#/definitions/models.BaseAccountDto"
                },
                "id": {
                    "type": "string"
                },
                "name": {
                    "type": "string"
                },
                "updatedAt": {
                    "type": "string"
                },
                "updatedBy": {
                    "$ref": "#/definitions/models.BaseAccountDto"
                }
            }
        },
        "models.M": {
            "type": "object",
            "additionalProperties": {
                "type": "any"
            }
        },
        "models.MetaDto": {
            "type": "object",
            "properties": {
                "id": {
                    "type": "string"
                },
                "name": {
                    "type": "string"
                },
                "opts": {
                    "$ref": "#/definitions/models.M"
                }
            }
        },
        "models.NotifyDto": {
            "type": "object",
            "properties": {
                "content": {
                    "type": "string"
                },
                "createdAt": {
                    "type": "string"
                },
                "description": {
                    "type": "string"
                },
                "group": {
                    "$ref": "#/definitions/models.BaseMetaDto"
                },
                "id": {
                    "type": "string"
                },
                "isRead": {
                    "type": "boolean"
                },
                "kind": {
                    "$ref": "#/definitions/models.BaseMetaDto"
                },
                "opts": {
                    "$ref": "#/definitions/models.NotifyOpts"
                },
                "sender": {
                    "$ref": "#/definitions/models.BaseUserDto"
                },
                "title": {
                    "type": "string"
                },
                "updatedAt": {
                    "type": "string"
                }
            }
        },
        "models.NotifyOpts": {
            "type": "object",
            "properties": {
                "name": {
                    "type": "string"
                }
            }
        },
        "models.OauthChangePasswordBody": {
            "type": "object",
            "required": [
                "newPassword",
                "oldPassword"
            ],
            "properties": {
                "newPassword": {
                    "type": "string"
                },
                "oldPassword": {
                    "type": "string"
                },
                "username": {
                    "type": "string"
                }
            }
        },
        "models.OauthForgotPasswordBody": {
            "type": "object",
            "required": [
                "username"
            ],
            "properties": {
                "username": {
                    "type": "string"
                }
            }
        },
        "models.OauthForgotPasswordOtpBody": {
            "type": "object",
            "required": [
                "code",
                "password",
                "username"
            ],
            "properties": {
                "code": {
                    "type": "string"
                },
                "password": {
                    "type": "string"
                },
                "username": {
                    "type": "string"
                }
            }
        },
        "models.OauthLoginBody": {
            "type": "object",
            "required": [
                "password",
                "username"
            ],
            "properties": {
                "password": {
                    "type": "string"
                },
                "username": {
                    "type": "string"
                }
            }
        },
        "models.OauthRegisterBody": {
            "type": "object",
            "required": [
                "name",
                "password",
                "username"
            ],
            "properties": {
                "name": {
                    "type": "string"
                },
                "password": {
                    "type": "string"
                },
                "username": {
                    "type": "string"
                }
            }
        },
        "models.OauthRegisterOtpBody": {
            "type": "object",
            "required": [
                "code",
                "username"
            ],
            "properties": {
                "code": {
                    "type": "string"
                },
                "username": {
                    "type": "string"
                }
            }
        },
        "models.OauthSessionDto": {
            "type": "object",
            "properties": {
                "accessToken": {
                    "type": "string"
                },
                "accountId": {
                    "type": "string"
                },
                "accountName": {
                    "type": "string"
                },
                "avatar": {
                    "type": "string"
                },
                "clientId": {
                    "type": "string"
                },
                "email": {
                    "type": "string"
                },
                "groupIds": {
                    "type": "array",
                    "items": {
                        "type": "string"
                    }
                },
                "id": {
                    "type": "string"
                },
                "isRoot": {
                    "type": "boolean"
                },
                "name": {
                    "type": "string"
                },
                "permissions": {
                    "type": "array",
                    "items": {
                        "type": "string"
                    }
                },
                "phone": {
                    "type": "string"
                },
                "scopes": {
                    "type": "array",
                    "items": {
                        "type": "string"
                    }
                },
                "username": {
                    "type": "string"
                },
                "website": {
                    "type": "string"
                }
            }
        },
        "models.OauthTokenBody": {
            "type": "object",
            "properties": {
                "access_token": {
                    "type": "string"
                },
                "expires_in": {
                    "type": "integer"
                },
                "scope": {
                    "type": "string"
                },
                "token_type": {
                    "type": "string"
                }
            }
        },
        "models.ProvinceDto": {
            "type": "object",
            "properties": {
                "id": {
                    "type": "string"
                },
                "name": {
                    "type": "string"
                }
            }
        },
        "models.RoleData": {
            "type": "object",
            "required": [
                "name",
                "permissions"
            ],
            "properties": {
                "name": {
                    "type": "string"
                },
                "permissions": {
                    "type": "array",
                    "minItems": 1,
                    "items": {
                        "type": "string"
                    }
                }
            }
        },
        "models.RoleDto": {
            "type": "object",
            "properties": {
                "createdAt": {
                    "type": "string"
                },
                "createdBy": {
                    "$ref": "#/definitions/models.BaseAccountDto"
                },
                "id": {
                    "type": "string"
                },
                "name": {
                    "type": "string"
                },
                "permissions": {
                    "type": "array",
                    "items": {
                        "$ref": "#/definitions/models.BaseMetaDto"
                    }
                },
                "updatedAt": {
                    "type": "string"
                },
                "updatedBy": {
                    "$ref": "#/definitions/models.BaseAccountDto"
                }
            }
        },
        "models.SwagAccountDtoList": {
            "type": "object",
            "properties": {
                "code": {
                    "type": "string"
                },
                "data": {
                    "type": "array",
                    "items": {
                        "$ref": "#/definitions/models.AccountDto"
                    }
                },
                "message": {
                    "type": "string"
                },
                "total": {
                    "type": "integer"
                }
            }
        },
        "models.SwagCodeMsg": {
            "type": "object",
            "properties": {
                "code": {
                    "type": "string"
                },
                "message": {
                    "type": "string"
                }
            }
        },
        "models.SwagConfigDto": {
            "type": "object",
            "properties": {
                "code": {
                    "type": "string"
                },
                "data": {
                    "$ref": "#/definitions/models.ConfigDto"
                },
                "message": {
                    "type": "string"
                }
            }
        },
        "models.SwagDistrictDtoList": {
            "type": "object",
            "properties": {
                "code": {
                    "type": "string"
                },
                "data": {
                    "type": "array",
                    "items": {
                        "$ref": "#/definitions/models.DistrictDto"
                    }
                },
                "message": {
                    "type": "string"
                }
            }
        },
        "models.SwagGroupBaseDtoList": {
            "type": "object",
            "properties": {
                "code": {
                    "type": "string"
                },
                "data": {
                    "type": "array",
                    "items": {
                        "$ref": "#/definitions/models.BaseGroupDto"
                    }
                },
                "message": {
                    "type": "string"
                }
            }
        },
        "models.SwagGroupDtoList": {
            "type": "object",
            "properties": {
                "code": {
                    "type": "string"
                },
                "data": {
                    "type": "array",
                    "items": {
                        "$ref": "#/definitions/models.GroupDto"
                    }
                },
                "message": {
                    "type": "string"
                },
                "total": {
                    "type": "integer"
                }
            }
        },
        "models.SwagMetaDto": {
            "type": "object",
            "properties": {
                "code": {
                    "type": "string"
                },
                "data": {
                    "type": "object",
                    "additionalProperties": {
                        "type": "array",
                        "items": {
                            "$ref": "#/definitions/models.MetaDto"
                        }
                    }
                },
                "message": {
                    "type": "string"
                }
            }
        },
        "models.SwagNotifyDtoList": {
            "type": "object",
            "properties": {
                "code": {
                    "type": "string"
                },
                "data": {
                    "type": "array",
                    "items": {
                        "$ref": "#/definitions/models.NotifyDto"
                    }
                },
                "message": {
                    "type": "string"
                },
                "total": {
                    "type": "integer"
                }
            }
        },
        "models.SwagOauthSessionDto": {
            "type": "object",
            "properties": {
                "code": {
                    "type": "string"
                },
                "data": {
                    "$ref": "#/definitions/models.OauthSessionDto"
                },
                "message": {
                    "type": "string"
                }
            }
        },
        "models.SwagOauthTokenBody": {
            "type": "object",
            "properties": {
                "code": {
                    "type": "string"
                },
                "data": {
                    "$ref": "#/definitions/models.OauthTokenBody"
                },
                "message": {
                    "type": "string"
                }
            }
        },
        "models.SwagProvinceDtoList": {
            "type": "object",
            "properties": {
                "code": {
                    "type": "string"
                },
                "data": {
                    "type": "array",
                    "items": {
                        "$ref": "#/definitions/models.ProvinceDto"
                    }
                },
                "message": {
                    "type": "string"
                }
            }
        },
        "models.SwagRoleBaseDtoList": {
            "type": "object",
            "properties": {
                "code": {
                    "type": "string"
                },
                "data": {
                    "type": "array",
                    "items": {
                        "$ref": "#/definitions/models.BaseRoleDto"
                    }
                },
                "message": {
                    "type": "string"
                }
            }
        },
        "models.SwagRoleDtoList": {
            "type": "object",
            "properties": {
                "code": {
                    "type": "string"
                },
                "data": {
                    "type": "array",
                    "items": {
                        "$ref": "#/definitions/models.RoleDto"
                    }
                },
                "message": {
                    "type": "string"
                },
                "total": {
                    "type": "integer"
                }
            }
        },
        "models.SwagWardDtoList": {
            "type": "object",
            "properties": {
                "code": {
                    "type": "string"
                },
                "data": {
                    "type": "array",
                    "items": {
                        "$ref": "#/definitions/models.WardDto"
                    }
                },
                "message": {
                    "type": "string"
                }
            }
        },
        "models.SwagWsJoinRoomDto": {
            "type": "object",
            "properties": {
                "code": {
                    "type": "string"
                },
                "data": {
                    "$ref": "#/definitions/models.WsJoinRoomDto"
                },
                "message": {
                    "type": "string"
                }
            }
        },
        "models.SwagWsLeaveRoomDto": {
            "type": "object",
            "properties": {
                "code": {
                    "type": "string"
                },
                "data": {
                    "$ref": "#/definitions/models.WsLeaveRoomDto"
                },
                "message": {
                    "type": "string"
                }
            }
        },
        "models.SwagWsSendMessageDto": {
            "type": "object",
            "properties": {
                "code": {
                    "type": "string"
                },
                "data": {
                    "$ref": "#/definitions/models.WsSendMessageDto"
                },
                "message": {
                    "type": "string"
                }
            }
        },
        "models.UserMeData": {
            "type": "object",
            "required": [
                "address",
                "avatar",
                "birthday",
                "email",
                "gender",
                "name",
                "phone"
            ],
            "properties": {
                "address": {
                    "type": "string"
                },
                "avatar": {
                    "type": "string"
                },
                "birthday": {
                    "type": "string"
                },
                "email": {
                    "type": "string"
                },
                "gender": {
                    "type": "string"
                },
                "id": {
                    "type": "string"
                },
                "name": {
                    "type": "string"
                },
                "phone": {
                    "type": "string"
                }
            }
        },
        "models.WardDto": {
            "type": "object",
            "properties": {
                "id": {
                    "type": "string"
                },
                "name": {
                    "type": "string"
                }
            }
        },
        "models.WsJoinRoomData": {
            "type": "object",
            "required": [
                "action",
                "payload"
            ],
            "properties": {
                "action": {
                    "type": "string"
                },
                "payload": {
                    "$ref": "#/definitions/models.WsJoinRoomPayload"
                }
            }
        },
        "models.WsJoinRoomDto": {
            "type": "object",
            "properties": {
                "action": {
                    "type": "string"
                },
                "createdAt": {
                    "type": "string"
                },
                "payload": {
                    "$ref": "#/definitions/models.WsJoinRoomPayload"
                },
                "sender": {
                    "$ref": "#/definitions/models.BaseUserDto"
                }
            }
        },
        "models.WsJoinRoomPayload": {
            "type": "object",
            "required": [
                "room"
            ],
            "properties": {
                "room": {
                    "type": "string"
                }
            }
        },
        "models.WsLeaveRoomData": {
            "type": "object",
            "required": [
                "action",
                "payload"
            ],
            "properties": {
                "action": {
                    "type": "string"
                },
                "payload": {
                    "$ref": "#/definitions/models.WsLeaveRoomPayload"
                }
            }
        },
        "models.WsLeaveRoomDto": {
            "type": "object",
            "properties": {
                "action": {
                    "type": "string"
                },
                "createdAt": {
                    "type": "string"
                },
                "payload": {
                    "$ref": "#/definitions/models.WsLeaveRoomPayload"
                },
                "sender": {
                    "$ref": "#/definitions/models.BaseUserDto"
                }
            }
        },
        "models.WsLeaveRoomPayload": {
            "type": "object",
            "required": [
                "room"
            ],
            "properties": {
                "room": {
                    "type": "string"
                }
            }
        },
        "models.WsSendMessageData": {
            "type": "object",
            "required": [
                "action",
                "payload"
            ],
            "properties": {
                "action": {
                    "type": "string"
                },
                "payload": {
                    "$ref": "#/definitions/models.WsSendMessagePayload"
                }
            }
        },
        "models.WsSendMessageDto": {
            "type": "object",
            "properties": {
                "action": {
                    "type": "string"
                },
                "createdAt": {
                    "type": "string"
                },
                "payload": {
                    "$ref": "#/definitions/models.WsSendMessagePayload"
                },
                "sender": {
                    "$ref": "#/definitions/models.BaseUserDto"
                }
            }
        },
        "models.WsSendMessagePayload": {
            "type": "object",
            "required": [
                "content",
                "room"
            ],
            "properties": {
                "content": {
                    "type": "string"
                },
                "room": {
                    "type": "string"
                }
            }
        }
    },
    "securityDefinitions": {
        "Bearer": {
            "type": "apiKey",
            "name": "Authorization",
            "in": "Header"
        }
    }
}